…
``` r
spotify_models <- spotify_models %>%
    mutate(tukey = map(aov, \(x) TukeyHSD(x) %>% broom::tidy()))

names(spotify_models$tukey) <- artists
```

``` r
spotify_models %>%
    unnest(tukey) %>%
    filter(adj.p.value < 0.05) %>%
    select(artist_name, contrast, estimate, conf.low, conf.high)
```

    ## # A tibble: 34 × 5
    ##    artist_name    contrast                           estimate conf.low conf.high
    ##    <chr>          <chr>                                 <dbl>    <dbl>     <dbl>
    ##  1 Arctic Monkeys Favourite Worst Nightmare (Standa…    0.196   0.0306     0.361
    ##  2 Arctic Monkeys Suck It and See-AM                    0.219   0.0541     0.384
    ##  3 Arctic Monkeys The Car-AM                           -0.286  -0.459     -0.113
    ##  4 Arctic Monkeys Whatever People Say I Am, That's …    0.191   0.0289     0.353
    ##  5 Arctic Monkeys The Car-Favourite Worst Nightmare…   -0.482  -0.655     -0.309
    ##  6 Arctic Monkeys The Car-Humbug                       -0.413  -0.594     -0.233
    ##  7 Arctic Monkeys The Car-Suck It and See              -0.505  -0.678     -0.332
    ##  8 Arctic Monkeys Tranquility Base Hotel & Casino-T…    0.361   0.185      0.538
    ##  9 Arctic Monkeys Whatever People Say I Am, That's …    0.477   0.307      0.647
    ## 10 Lana Del Rey   Born To Die (Deluxe Version)-Blue…    0.390   0.229      0.551
    ## # ℹ 24 more rows
…
